factorizing 3408373804688014068785295750190461
factorizing 1136124601562671356261765250063487
B1=4078
Found factor 9937243 using (X=1128261072692717315602652054700868 : Z=695614119297514951896942402168156) on 1Y^2 Z = X(X^2 + 498828337900665954352973133835735XZ + Z^2)
factorizing 9937243
B1=17
Found factor 3347 using (X=3448635 : Z=6314861) on 1Y^2 Z = X(X^2 + 534173XZ + Z^2)
factorizing 114329960690572964378728109
B1=1264
Found factor 105664713542411 using (X=740294796813562521377967 : Z=59225895152847205407874524) on 1Y^2 Z = X(X^2 + 47945160325993916941848034XZ + Z^2)
3 3347 2969 105664713542411 1082007009319 
